…
    ## # A tibble: 1 x 1
    ##       n
    ##   <int>
    ## 1   264

``` r
df %>% 
  filter(is.na(slum_pop_percent)) %>% 
  count(year) 
```

    ## # A tibble: 60 x 2
    ##     year     n
    ##    <int> <int>
    ##  1  1960   264
    ##  2  1961   264
    ##  3  1962   264
    ##  4  1963   264
    ##  5  1964   264
    ##  6  1965   264
    ##  7  1966   264
    ##  8  1967   264
    ##  9  1968   264
    ## 10  1969   264
    ## # … with 50 more rows
…
### Individual country data

``` r
df %>% 
  filter(!(iso2c %in% group_codes)) %>% 
  count(country)
```

    ## # A tibble: 106 x 2
    ##    country                 n
    ##    <chr>               <int>
    ##  1 Afghanistan             1
    ##  2 Algeria                 1
    ##  3 Angola                  5
    ##  4 Antigua and Barbuda     2
    ##  5 Argentina               7
    ##  6 Armenia                 1
    ##  7 Bangladesh              7
    ##  8 Belize                  2
    ##  9 Benin                   7
    ## 10 Bhutan                  1
    ## # … with 96 more rows
…
